<svg width="18" height="19" viewBox="0 0 18 19" fill="none" xmlns="http://www.w3.org/2000/svg">
<circle cx="7.76087" cy="7.76087" r="6.76087" stroke="white" stroke-width="2" stroke-linecap="round"/>
<line x1="1" y1="-1" x2="6.31702" y2="-1" transform="matrix(0.70711 0.707104 -0.70711 0.707104 11.8262 13.3044)" stroke="white" stroke-width="2" stroke-linecap="round"/>
</svg>
