<svg width="11" height="11" viewBox="0 0 11 11" fill="none" xmlns="http://www.w3.org/2000/svg">
<path opacity="0.7" d="M10.8087 9.98044L10.404 10.3789L10.3115 10.4519C10.1132 10.6068 9.89332 10.7319 9.65891 10.8231C9.44403 10.9075 9.21938 10.9645 8.99028 10.9926C8.98411 10.9926 8.9212 11 8.8077 11C8.16374 11 5.84697 10.7822 3.04291 7.9735C0.681725 5.60401 -0.190458 3.87794 0.0340643 2.01205C0.0611284 1.78328 0.116663 1.55881 0.199372 1.34389C0.290709 1.10747 0.415338 0.885379 0.569463 0.684398L0.5818 0.667075L0.616342 0.618819L1.04195 0.189467C1.16523 0.067655 1.3315 -0.000385037 1.50456 0.000155615C1.58138 -0.00162518 1.65778 0.0118932 1.72936 0.0399284C1.80093 0.0679636 1.86625 0.109959 1.92153 0.163483L3.71524 1.96132C3.82812 2.08224 3.88895 2.2429 3.88456 2.40849C3.88018 2.57408 3.81092 2.73127 3.6918 2.84601L2.71353 3.82226C2.6848 3.85089 2.66622 3.88817 2.66065 3.9284C2.65508 3.96863 2.66282 4.00959 2.68269 4.04498L2.82579 4.29245C3.25304 5.12603 3.80373 5.88987 4.45913 6.55799C5.12075 7.20898 5.87641 7.75625 6.70065 8.18137L6.96341 8.32737C6.99907 8.34593 7.03978 8.35235 7.0794 8.34565C7.11901 8.33895 7.15538 8.31951 7.183 8.29025L8.15387 7.31648C8.27794 7.19538 8.44461 7.12825 8.61772 7.12964C8.69523 7.12888 8.77212 7.14358 8.84392 7.1729C8.91571 7.20221 8.98098 7.24555 9.03592 7.30039L10.8284 9.09946C10.8842 9.15558 10.9282 9.22242 10.9577 9.29598C10.9871 9.36954 11.0015 9.44832 10.9999 9.52758C10.9972 9.69796 10.9281 9.86051 10.8074 9.98044H10.8087Z" fill="white"/>
</svg>
