<svg width="36" height="36" viewBox="0 0 36 36" fill="none" xmlns="http://www.w3.org/2000/svg">
<g opacity="0.7">
<circle r="17" transform="matrix(-1 0 0 1 18 18)" stroke="#4298DF" stroke-width="2"/>
<path d="M20.979 10.979L13.9373 18.0207L20.979 25.0624" stroke="#4298DF" stroke-width="2"/>
</g>
</svg>
