<svg width="24" height="24" viewBox="0 0 24 24" fill="none" xmlns="http://www.w3.org/2000/svg">
<g opacity="0.7">
<path d="M18 5C18 6.10458 16.3137 8 12 8C7.68629 8 6 6.10458 6 5M18 5V19C18 20.1046 16.3137 22 12 22C7.68629 22 6 20.1046 6 19V5M18 5C18 3.89543 16.3137 2 12 2C7.68629 2 6 3.89543 6 5" stroke="#22366C" stroke-width="2"/>
</g>
</svg>
